{
  "_license": "Copyright 2018 Via Science, Inc.\n\nLicensed under the Apache License, Version 2.0 (the \"License\"); you may not use this file except in compliance with the License. You may obtain a copy of the License at\n\n    http://www.apache.org/licenses/LICENSE-2.0\n\nUnless required by applicable law or agreed to in writing, software distributed under the License is distributed on an \"AS IS\" BASIS, WITHOUT WARRANTIES OR CONDITIONS OF ANY KIND, either express or implied. See the License for the specific language governing permissions and limitations under the License.",
  "description": "Calculate the aggregate results of a column or columns. Valid aggregations are mean, variance, skewness, and kurtosis. Aggregation may be grouped over a time interval or by the values of another column.",
  "restrictionLevel":2000,
  "restrictionVersion":"1.0",
  "columns": {
    "choices": "COLUMNS",
    "description": "Authorize the aggregation to be obtained on the following columns"
  },
  "exponent": {
    "choices": ["mean", "variance", "skewness", "kurtosis"],
    "description": "Allow the following aggregations to be calculated"
  },
  "time": {
    "choices": "COLUMNS",
    "description": "Authorize the following column to be used for time aggregation"
  },
  "interval": {
    "choices": ["microseconds", "milliseconds", "second", "minute", "hour", "day", "week", "month", "quarter", "year", "decade", "century", "millennium"],
    "description": "Allow time aggregation over the following time intervals"
  },
  "group": {
    "choices": "COLUMNS",
    "description": "Authorize aggregations to be obtained for groups defined by the following columns"
  }
}
